Case-study 3: The Tudor Network of Letters – Digital mapping for the humanities and the social sciences - HIST8872
…
Figure 1: Letter signed by Queen Mary I (St James’s Palace, 18 April 1554). Source: here.

These letters form part of the official government records of the Tudor period in England. In particular, they store the communications between the members of the government: the monarchs’ secretaries and the monarchs themselves, local government officials, overseas embassies and military missions. They also include intercepted and seized correspondence, as well as the petitions to government from across Tudor Society. The provide therefore a privileged window into the functioning of the Tudor governments and the society as a whole.

In total, there are almost 140,000 letters, exchanged between more than 20,000 historical actors. You can check the wonderful visualisation the authors made available here.] This digitised source that has opened up new ways of studying the Early Modern Period (Ahnert and Ahnert 2023). Given the scale of the dataset, we will work with a 1 per-cent random sample to reduce the computing requirements. The resulting data frame contains 1,393 rows, which in our case refer to letters. The image below shows how the first rows in this data set look like.

# A tibble: 1,393 × 10
   from   to    date_from date_to place_from y_from x_from place_to   x_to  y_to
   <chr>  <chr>     <dbl>   <dbl> <chr>       <dbl>  <dbl> <chr>     <dbl> <dbl>
 1 Charl… The …  16010701  1.60e7 <NA>         NA    NA    <NA>     NA      NA  
 2 T.B.   Sir …  15980101  1.60e7 <NA>         NA    NA    Court o… -0.138  51.5
 3 Sir W… Priv…  15900910  1.59e7 Kilmainham   NA    NA    Greenwi…  0      51.5
 4 Isaac… Quee…  15980228  1.60e7 Paris        48.9   2.35 Greenwi…  0      51.5
 5 Queen… Offi…  15570709  1.56e7 <NA>         NA    NA    <NA>     NA      NA  
 6 Willi… Sir …  15711026  1.57e7 Edinburgh    56.0  -3.19 Court o… -0.138  51.5
 7 Queen… Thom…  15590111  1.56e7 <NA>         NA    NA    Newcast… -1.61   55.0
 8 Queen… Robe…  15680204  1.57e7 <NA>         NA    NA    Dublin   -6.26   53.3
 9 Adolf… Sir …  15880805  1.59e7 Utrecht      52.1   5.12 Paris     2.35   48.9
10 Georg… John…  15330101  1.53e7 <NA>         NA    NA    <NA>     NA      NA  
# ℹ 1,383 more rows
…
